<svg width="16" height="16" viewBox="0 0 16 16" fill="none" xmlns="http://www.w3.org/2000/svg">
<path d="M0 0.75V16H15.25V0.75H0ZM13.725 14.475H1.525V2.275H13.725V14.475Z" fill="#265197"/>
<path d="M12.2 3.80005H3.04999V6.85005H12.2V3.80005Z" fill="#265197"/>
<path d="M5.33749 8.375H3.04999V9.9H5.33749V8.375Z" fill="#265197"/>
<path d="M9.14999 8.375H6.86249V9.9H9.14999V8.375Z" fill="#265197"/>
<path d="M5.33749 11.425H3.04999V12.95H5.33749V11.425Z" fill="#265197"/>
<path d="M9.14999 11.425H6.86249V12.95H9.14999V11.425Z" fill="#265197"/>
<path d="M12.2 8.375H10.675V12.95H12.2V8.375Z" fill="#265197"/>
</svg>
