<svg width="22" height="25" viewBox="0 0 22 25" fill="none" xmlns="http://www.w3.org/2000/svg">
<path d="M14.4545 5.71435H17.8288C16.8163 4.18882 14.8352 1.7714 13.7145 0.714355V4.80296C13.7144 5.30551 14.0463 5.71435 14.4545 5.71435Z" fill="#B91818"/>
<path d="M18.5138 10.2937V7.06717H14.1178C13.0344 7.06717 12.1523 6.04118 12.1523 4.78004V0H1.38854C0.621572 0 0 0.723355 0 1.61606V6.59004H0.00292057V11.3239H20.2409V21.0192H0.00304754V23.4514C0.033523 24.3124 0.641128 25 1.38867 25H17.1257C17.8925 25 18.5141 24.2764 18.5141 23.3839V22.0494H21.2571V10.2937H18.5138Z" fill="#B91818"/>
<path d="M4.08151 15.094C4.08151 15.6636 3.91968 16.1042 3.59602 16.4158C3.27459 16.7251 2.817 16.8797 2.22325 16.8797H1.8516V18.5712H0.529053V13.4722H2.22325C2.84155 13.4722 3.30584 13.6128 3.61611 13.8942C3.92637 14.1755 4.08151 14.5755 4.08151 15.094ZM1.8516 15.7566H2.09267C2.29133 15.7566 2.4487 15.6985 2.56477 15.5822C2.68307 15.466 2.74222 15.3055 2.74222 15.1009C2.74222 14.7568 2.55919 14.5848 2.19312 14.5848H1.8516V15.7566Z" fill="#B91818"/>
<path d="M10.1596 15.9136C10.1596 16.7646 9.93419 17.4203 9.48329 17.8807C9.03463 18.341 8.40294 18.5712 7.5882 18.5712H6.0045V13.4722H7.6987C8.48441 13.4722 9.09044 13.6814 9.51678 14.1C9.94535 14.5185 10.1596 15.123 10.1596 15.9136ZM8.78687 15.9624C8.78687 15.495 8.69758 15.1486 8.51901 14.9231C8.34267 14.6975 8.0737 14.5848 7.71209 14.5848H7.32704V17.4412H7.62169C8.02347 17.4412 8.31811 17.3203 8.50561 17.0785C8.69311 16.8343 8.78687 16.4623 8.78687 15.9624Z" fill="#B91818"/>
<path d="M13.4855 18.5712H12.1831V13.4722H15.0759V14.5778H13.4855V15.5509H14.952V16.6565H13.4855V18.5712Z" fill="#B91818"/>
</svg>
