<svg width="20" height="20" viewBox="0 0 20 20" fill="none" xmlns="http://www.w3.org/2000/svg">
<path d="M16.6151 9.52752C17.4599 7.01501 16.9184 4.10228 14.9473 2.10117C12.2181 -0.700389 7.77776 -0.700389 5.04856 2.10117C3.09914 4.10228 2.53597 7.01501 3.38072 9.52752C4.77058 13.6378 7.90462 17.5794 9.30715 19.2116C9.68176 19.6476 10.3358 19.6474 10.7103 19.2114C12.1039 17.5891 15.2056 13.6868 16.5935 9.61645L16.6151 9.52752ZM11.5033 9.17176C10.6802 10.0167 9.33729 10.0167 8.53587 9.17176C7.71278 8.32685 7.71278 6.9483 8.53587 6.12563C9.35895 5.28071 10.7019 5.28071 11.5033 6.12563C12.3264 6.97054 12.3264 8.32685 11.5033 9.17176Z" fill="white"/>
</svg>
