<svg width="101" height="64" viewBox="0 0 101 64" fill="none" xmlns="http://www.w3.org/2000/svg">
<path d="M99.2913 27.0563L86.0214 14.4735C85.3579 13.8444 84.6944 13.5298 83.6992 13.5298H67.1119V4.09272C67.1119 2.2053 65.7849 0.947021 63.7944 0.947021H4.08016C2.08968 0.947021 0.762695 2.2053 0.762695 4.09272V54.4238C0.762695 56.3113 2.08968 57.5695 4.08016 57.5695H11.3786C12.7056 61.3444 16.3548 63.8609 20.6675 63.8609C24.9802 63.8609 28.6294 61.3444 29.9563 57.5695H63.7944H71.0928C72.4198 61.3444 76.069 63.8609 80.3817 63.8609C84.6944 63.8609 88.3436 61.3444 89.6706 57.5695H96.969C98.9595 57.5695 100.286 56.3113 100.286 54.4238V29.2583C100.286 28.3146 99.9548 27.6854 99.2913 27.0563ZM7.39762 7.23841H60.477V16.6755V51.2781H29.9563V50.9636C29.9563 50.649 29.9563 50.649 29.6246 50.3344C29.2929 50.0199 29.2929 49.7053 28.9611 49.3907L28.6294 49.0762C28.2976 48.7616 27.9659 48.447 27.6341 48.1325C27.6341 48.1325 27.6341 48.1325 27.3024 47.8179C26.9706 47.5033 26.3071 47.1887 25.9754 46.8742L25.6436 46.5596C25.3119 46.245 24.9802 46.245 24.6484 45.9305C24.3167 45.9305 24.3167 45.9305 23.9849 45.6159C23.6532 45.6159 23.3214 45.3013 22.6579 45.3013C22.3262 45.3013 22.3262 45.3013 21.9944 45.3013C21.9944 44.9868 21.3309 44.9868 20.6675 44.9868C20.004 44.9868 19.3405 44.9868 18.677 45.3013C18.3452 45.3013 18.3452 45.3013 18.0135 45.3013C17.6817 45.3013 17.35 45.6159 16.6865 45.6159C16.3548 45.6159 16.3548 45.6159 16.023 45.9305C15.6913 46.245 15.3595 46.245 15.0278 46.5596C15.0278 46.5596 14.696 46.5596 14.696 46.8742C14.3643 47.1887 13.7008 47.5033 13.369 47.8179C13.369 47.8179 13.369 47.8179 13.0373 48.1325C12.7056 48.447 12.3738 48.7616 12.0421 49.0762L11.7103 49.3907C11.3786 49.7053 11.3786 50.0199 11.0468 50.3344C11.0468 50.649 10.7151 50.649 10.7151 50.9636V51.2781H7.39762V7.23841ZM20.6675 57.5695C18.677 57.5695 17.35 56.3113 17.35 54.4238C17.35 52.5364 18.677 51.2781 20.6675 51.2781C22.6579 51.2781 23.9849 52.5364 23.9849 54.4238C23.9849 56.3113 22.6579 57.5695 20.6675 57.5695ZM80.3817 57.5695C78.3913 57.5695 77.0643 56.3113 77.0643 54.4238C77.0643 52.5364 78.3913 51.2781 80.3817 51.2781C82.3722 51.2781 83.6992 52.5364 83.6992 54.4238C83.6992 56.3113 82.3722 57.5695 80.3817 57.5695ZM93.6516 51.2781H89.6706V50.9636C89.6706 50.649 89.6706 50.649 89.3389 50.3344C89.0071 50.0199 89.0071 49.7053 88.6754 49.3907L88.3436 49.0762C88.0119 48.7616 87.6802 48.447 87.3484 48.1325C87.3484 48.1325 87.3484 48.1325 87.0167 47.8179C86.6849 47.5033 86.0214 47.1887 85.6897 46.8742L85.3579 46.5596C85.0262 46.245 84.6944 46.245 84.3627 45.9305C84.0309 45.9305 84.0309 45.9305 83.6992 45.6159C83.3675 45.6159 83.0357 45.3013 82.3722 45.3013C82.0405 45.3013 82.0405 45.3013 81.7087 45.3013C81.7087 44.9868 81.0452 44.9868 80.3817 44.9868C79.7182 44.9868 79.0547 44.9868 78.3913 45.3013C78.0595 45.3013 78.0595 45.3013 77.7278 45.3013C77.396 45.3013 77.0643 45.6159 76.4008 45.6159C76.069 45.6159 76.069 45.6159 75.7373 45.9305C75.4055 46.245 75.0738 46.245 74.7421 46.5596C74.7421 46.5596 74.4103 46.5596 74.4103 46.8742C74.0786 47.1887 73.4151 47.5033 73.0833 47.8179C73.0833 47.8179 73.0833 47.8179 72.7516 48.1325C72.4198 48.447 72.0881 48.7616 71.7563 49.0762L71.4246 49.3907C71.0928 49.7053 71.0928 50.0199 70.7611 50.3344C70.7611 50.649 70.4294 50.649 70.4294 50.9636V51.2781H67.1119V19.8212H82.3722L93.6516 30.5166V51.2781Z" fill="#F5DA5A"/>
</svg>
