<svg width="9" height="9" viewBox="0 0 9 9" fill="none" xmlns="http://www.w3.org/2000/svg">
<path d="M7.07143 5.14286C6.01071 5.14286 5.14286 6.01071 5.14286 7.07143C5.14286 8.13214 6.01071 9 7.07143 9C8.13214 9 9 8.13214 9 7.07143C9 6.01071 8.13214 5.14286 7.07143 5.14286ZM3.85714 1.92857C3.85714 0.867857 2.98929 0 1.92857 0C0.867857 0 0 0.867857 0 1.92857C0 2.98929 0.867857 3.85714 1.92857 3.85714C2.98929 3.85714 3.85714 2.98929 3.85714 1.92857ZM8.35714 1.28571C8.35714 0.514286 7.71429 0 7.07143 0C6.68571 0 6.33214 0.192857 6.13929 0.385714L0.996429 6.81429C0.9 6.94286 0.642857 7.26429 0.642857 7.71429C0.642857 8.48571 1.28571 9 1.92857 9C2.31429 9 2.66786 8.80714 2.86071 8.61429L8.00357 2.18571C8.1 2.05714 8.35714 1.73571 8.35714 1.28571Z" fill="#EDF0F6"/>
</svg>
