<svg width="9" height="9" viewBox="0 0 9 9" fill="none" xmlns="http://www.w3.org/2000/svg">
<path fill-rule="evenodd" clip-rule="evenodd" d="M7.77817 8.48528L8.48528 7.77817L4.94994 4.24284L8.48562 0.707154L7.77852 4.71473e-05L4.24284 3.53573L0.707107 0L0 0.707107L3.53573 4.24284L0.000342488 7.77822L0.707449 8.48533L4.24284 4.94994L7.77817 8.48528Z" fill="white"/>
</svg>
