<svg width="4" height="7" viewBox="0 0 4 7" fill="none" xmlns="http://www.w3.org/2000/svg">
<path fill-rule="evenodd" clip-rule="evenodd" d="M0.567383 6.21381L0.908398 6.55483L3.99984 3.46339L0.908398 0.371948L0.567383 0.712963L3.31781 3.46339L0.567383 6.21381Z" fill="#1B3C72"/>
</svg>
