<svg width="11" height="11" viewBox="0 0 11 11" fill="none" xmlns="http://www.w3.org/2000/svg">
<path d="M1.76446 6.2203C1.5847 6.48593 1.77499 6.84448 2.09573 6.84448L8.96478 6.84448C9.28552 6.84448 9.47582 6.48592 9.29605 6.2203L5.86153 1.14528C5.70289 0.910861 5.35763 0.910861 5.19899 1.14528L1.76446 6.2203Z" fill="#fff"/>
</svg>
