<svg width="8" height="11" viewBox="0 0 8 11" fill="none" xmlns="http://www.w3.org/2000/svg">
<path opacity="0.5" fill-rule="evenodd" clip-rule="evenodd" d="M0.974609 10.3239L1.57736 10.9267L7.0407 5.46335L1.57736 0L0.974609 0.602747L5.83521 5.46335L0.974609 10.3239Z" fill="#265197"/>
</svg>
