<svg width="65" height="65" viewBox="0 0 65 65" fill="none" xmlns="http://www.w3.org/2000/svg">
<mask id="mask0" mask-type="alpha" maskUnits="userSpaceOnUse" x="0" y="0" width="65" height="65">
<rect width="65" height="65" fill="#C4C4C4"/>
</mask>
<g mask="url(#mask0)">
<path d="M55.329 36.25L47.9911 38.2226L38.958 33L47.9911 27.7774L55.329 29.75L57 23.5006L51.4865 22.0211L52.9638 16.4994L46.7237 14.8259L44.754 22.1828L35.729 27.3974V16.9602L41.1053 11.5759L36.5362 7L32.5 11.0423L28.4638 7L23.8947 11.5759L29.271 16.9602V27.3974L20.246 22.1828L18.2763 14.8259L12.0362 16.4994L13.5135 22.0211L8 23.5006L9.671 29.75L17.017 27.7774L26.042 33L17.017 38.2226L9.671 36.25L8 42.4994L13.5135 43.9789L12.0362 49.5006L18.2763 51.1741L20.246 43.8172L29.271 38.6026V49.0398L23.8947 54.4241L28.4638 59L32.5 54.9577L36.5362 59L41.1053 54.4241L35.729 49.0398V38.6026L44.754 43.8172L46.7237 51.1741L52.9638 49.5006L51.4865 43.9789L57 42.4994L55.329 36.25Z" fill="#EBEDF2"/>
</g>
</svg>
